Version 4
SHEET 1 880 680
WIRE 144 48 128 48
WIRE 272 48 224 48
WIRE 480 64 464 64
WIRE 608 64 560 64
WIRE 32 128 -32 128
WIRE 128 128 128 48
WIRE 128 128 112 128
WIRE 176 128 128 128
WIRE 272 144 272 48
WIRE 272 144 240 144
WIRE 352 144 272 144
WIRE 464 144 464 64
WIRE 464 144 432 144
WIRE 512 144 464 144
WIRE -32 160 -32 128
WIRE 176 160 160 160
WIRE 608 160 608 64
WIRE 608 160 576 160
WIRE 784 160 608 160
WIRE 512 176 496 176
WIRE 160 208 160 160
WIRE 496 224 496 176
FLAG 160 208 0
FLAG -32 240 0
FLAG 496 224 0
FLAG 784 160 Vout
FLAG -32 128 Vin
SYMBOL Opamps\\opamp 208 80 R0
SYMATTR InstName U1
SYMBOL res 128 112 R90
WINDOW 0 0 56 VBottom 2
WINDOW 3 32 56 VTop 2
SYMATTR InstName R1
SYMATTR Value 10k
SYMBOL res 240 32 R90
WINDOW 0 0 56 VBottom 2
WINDOW 3 32 56 VTop 2
SYMATTR InstName Rf
SYMATTR Value 6.6k
SYMBOL voltage -32 144 R0
WINDOW 123 24 124 Left 2
WINDOW 39 0 0 Left 0
SYMATTR InstName V1
SYMATTR Value SINE(0 5 0.5)
SYMATTR Value2 AC 5
SYMBOL Opamps\\opamp 544 96 R0
SYMATTR InstName U2
SYMBOL res 576 48 R90
WINDOW 0 0 56 VBottom 2
WINDOW 3 32 56 VTop 2
SYMATTR InstName Rf1
SYMATTR Value 1k
SYMBOL res 448 128 R90
WINDOW 0 0 56 VBottom 2
WINDOW 3 32 56 VTop 2
SYMATTR InstName R2
SYMATTR Value 1k
TEXT 168 176 Left 2 !.lib opamp.sub
TEXT -66 264 Left 2 !.tran 0.5
TEXT 504 192 Left 2 !.lib opamp.sub
TEXT -68 284 Left 2 !;tf 5 0
